Onda10.vcd
$date
  Tue May 27 13:17:02 2025
$end
$version
  GHDL v0
$end
$timescale
  1 fs
$end
$scope module standard $end
$upscope $end
$scope module textio $end
$upscope $end
$scope module std_logic_1164 $end
$upscope $end
$scope module numeric_std $end
$upscope $end
$scope module math_real $end
$upscope $end
$scope module sad_pack $end
$upscope $end
$scope module tb_sad_bo $end
$var reg 1 ! clk $end
$var reg 8 " sample_ori[7:0] $end
$var reg 8 # sample_can[7:0] $end
$var reg 1 $ ci $end
$var reg 1 % zi $end
$var reg 1 & cpa $end
$var reg 1 ' cpb $end
$var reg 1 ( zsoma $end
$var reg 1 ) csoma $end
$var reg 1 * csad $end
$var reg 6 + address[5:0] $end
$var reg 14 , sad[13:0] $end
$var reg 1 - menor $end
$scope module dut $end
$var reg 1 . clk $end
$var reg 8 / sample_ori[7:0] $end
$var reg 8 0 sample_can[7:0] $end
$var reg 6 1 address[5:0] $end
$var reg 14 2 sad[13:0] $end
$var reg 1 3 menor $end
$var reg 1 4 ci $end
$var reg 1 5 zi $end
$var reg 1 6 cpa $end
$var reg 1 7 cpb $end
$var reg 1 8 zsoma $end
$var reg 1 9 csoma $end
$var reg 1 : csad $end
$var reg 8 ; a[7:0] $end
$var reg 8 < b[7:0] $end
$var reg 8 = pa[7:0] $end
$var reg 8 > pb[7:0] $end
$var reg 8 ? sab[7:0] $end
$var reg 14 @ muxs14[13:0] $end
$var reg 14 A muxu14[13:0] $end
$var reg 14 B sab14[13:0] $end
$var reg 14 C soma[13:0] $end
$var reg 14 D saad[13:0] $end
$var reg 15 E intsoma[14:0] $end
$var reg 7 F muxs7[6:0] $end
$var reg 7 G i[6:0] $end
$var reg 7 H muxu7[6:0] $end
$var reg 7 I j[6:0] $end
$var reg 6 J entsoma[5:0] $end
$var reg 6 K songoku[5:0] $end
$var reg 1 L overflow $end
$var reg 7 M next_j[6:0] $end
$var reg 7 N saisoma[6:0] $end
$scope module mux7 $end
$var reg 1 O sel $end
$var reg 7 P in_0[6:0] $end
$var reg 7 Q in_1[6:0] $end
$var reg 7 R y[6:0] $end
$upscope $end
$scope module conti $end
$var reg 1 S clk $end
$var reg 1 T enable $end
$var reg 7 U d[6:0] $end
$var reg 7 V q[6:0] $end
$upscope $end
$scope module soma7 $end
$var reg 6 W input_a[5:0] $end
$var reg 6 X input_b[5:0] $end
$var reg 7 Y sum[6:0] $end
$upscope $end
$scope module paa $end
$var reg 1 Z clk $end
$var reg 1 [ enable $end
$var reg 8 \ d[7:0] $end
$var reg 8 ] q[7:0] $end
$upscope $end
$scope module pbb $end
$var reg 1 ^ clk $end
$var reg 1 _ enable $end
$var reg 8 ` d[7:0] $end
$var reg 8 a q[7:0] $end
$upscope $end
$scope module sub $end
$var reg 8 b input_a[7:0] $end
$var reg 8 c input_b[7:0] $end
$var reg 8 d abs_diff[7:0] $end
$var reg 9 e a1[8:0] $end
$var reg 9 f b1[8:0] $end
$var reg 9 g s[8:0] $end
$upscope $end
$scope module soma14 $end
$var reg 14 h input_a[13:0] $end
$var reg 14 i input_b[13:0] $end
$var reg 15 j sum[14:0] $end
$upscope $end
$scope module mux14 $end
$var reg 1 k sel $end
$var reg 14 l in_0[13:0] $end
$var reg 14 m in_1[13:0] $end
$var reg 14 n y[13:0] $end
$upscope $end
$scope module soma_reg $end
$var reg 1 o clk $end
$var reg 1 p enable $end
$var reg 14 q d[13:0] $end
$var reg 14 r q[13:0] $end
$upscope $end
$scope module sad_reg $end
$var reg 1 s clk $end
$var reg 1 t enable $end
$var reg 14 u d[13:0] $end
$var reg 14 v q[13:0] $end
$upscope $end
$upscope $end
$upscope $end
$enddefinitions $end
#0
0!
b00000000 "
b00000000 #
1$
1%
0&
0'
0(
0)
0*
bUUUUUU +
bUUUUUUUUUUUUUU ,
U-
0.
b00000000 /
b00000000 0
bUUUUUU 1
bUUUUUUUUUUUUUU 2
U3
14
15
06
07
08
09
0:
b00000000 ;
b00000000 <
bUUUUUUUU =
bUUUUUUUU >
bXXXXXXXX ?
bUUUUUUUUUUUUUU @
bUUUUUUUUUUUUUU A
b000000XXXXXXXX B
bUUUUUUUUUUUUUU C
bUUUUUUUUUUUUUU D
bXXXXXXXXXXXXXXX E
b0000000 F
bUUUUUUU G
b0000000 H
bXXXXXXX I
bUUUUUU J
bUUUUUU K
XL
bUUUUUUU M
bXXXXXXX N
1O
bXXXXXXX P
b0000000 Q
b0000000 R
0S
1T
b0000000 U
bUUUUUUU V
bUUUUUU W
b000001 X
bXXXXXXX Y
0Z
0[
b00000000 \
bUUUUUUUU ]
0^
0_
b00000000 `
bUUUUUUUU a
bUUUUUUUU b
bUUUUUUUU c
bXXXXXXXX d
b0UUUUUUUU e
b0UUUUUUUU f
bXXXXXXXXX g
b000000XXXXXXXX h
bUUUUUUUUUUUUUU i
bXXXXXXXXXXXXXXX j
0k
bUUUUUUUUUUUUUU l
b00000000000000 m
bUUUUUUUUUUUUUU n
0o
0p
bUUUUUUUUUUUUUU q
bUUUUUUUUUUUUUU r
0s
0t
bUUUUUUUUUUUUUU u
bUUUUUUUUUUUUUU v
#10000000
1!
b000000 +
0-
1.
b000000 1
03
b0000000 G
b0000001 I
b000000 J
b0000000 M
b0000001 N
b0000001 P
1S
b0000000 V
b000000 W
b0000001 Y
1Z
1^
1o
1s
#20000000
0!
0%
0.
05
b0000001 F
b0000001 H
0O
b0000001 R
0S
b0000001 U
0Z
0^
0o
0s
#30000000
1!
b000001 +
1.
b000001 1
b0000010 F
b0000001 G
b0000010 H
b0000010 I
b000001 J
b0000001 M
b0000010 N
b0000010 P
b0000010 R
1S
b0000010 U
b0000001 V
b000001 W
b0000010 Y
1Z
1^
1o
1s
#40000000
0!
0.
0S
0Z
0^
0o
0s
#50000000
1!
b000010 +
1.
b000010 1
b0000011 F
b0000010 G
b0000011 H
b0000011 I
b000010 J
b0000010 M
b0000011 N
b0000011 P
b0000011 R
1S
b0000011 U
b0000010 V
b000010 W
b0000011 Y
1Z
1^
1o
1s
#60000000
0!
0.
0S
0Z
0^
0o
0s
#70000000
1!
b000011 +
1.
b000011 1
b0000100 F
b0000011 G
b0000100 H
b0000100 I
b000011 J
b0000011 M
b0000100 N
b0000100 P
b0000100 R
1S
b0000100 U
b0000011 V
b000011 W
b0000100 Y
1Z
1^
1o
1s
#80000000
0!
0.
0S
0Z
0^
0o
0s
#90000000
1!
b000100 +
1.
b000100 1
b0000101 F
b0000100 G
b0000101 H
b0000101 I
b000100 J
b0000100 M
b0000101 N
b0000101 P
b0000101 R
1S
b0000101 U
b0000100 V
b000100 W
b0000101 Y
1Z
1^
1o
1s
#100000000
0!
0.
0S
0Z
0^
0o
0s
#110000000
1!
b000101 +
1.
b000101 1
b0000110 F
b0000101 G
b0000110 H
b0000110 I
b000101 J
b0000101 M
b0000110 N
b0000110 P
b0000110 R
1S
b0000110 U
b0000101 V
b000101 W
b0000110 Y
1Z
1^
1o
1s
#120000000
0!
b00010000 "
b00001000 #
1&
1'
1(
1)
1*
0.
b00010000 /
b00001000 0
16
17
18
19
1:
b00010000 ;
b00001000 <
b00000000000000 @
0S
0Z
1[
b00010000 \
0^
1_
b00001000 `
1k
b00000000000000 n
0o
1p
b00000000000000 q
0s
1t
#130000000
1!
b000110 +
1.
b000110 1
b00010000 =
b00001000 >
b00001000 ?
bXXXXXXXXXXXXXX A
b00000000001000 B
bXXXXXXXXXXXXXX C
b0000111 F
b0000110 G
b0000111 H
b0000111 I
b000110 J
b0000110 M
b0000111 N
b0000111 P
b0000111 R
1S
b0000111 U
b0000110 V
b000110 W
b0000111 Y
1Z
b00010000 ]
1^
b00001000 a
b00010000 b
b00001000 c
b00001000 d
b000010000 e
b000001000 f
b000001000 g
b00000000001000 h
bXXXXXXXXXXXXXX i
bXXXXXXXXXXXXXX l
1o
bXXXXXXXXXXXXXX r
1s
bXXXXXXXXXXXXXX u
#140000000
0!
0.
0S
0Z
0^
0o
0s
#150000000
1!
b000111 +
bXXXXXXXXXXXXXX ,
1.
b000111 1
bXXXXXXXXXXXXXX 2
bXXXXXXXXXXXXXX D
b0001000 F
b0000111 G
b0001000 H
b0001000 I
b000111 J
b0000111 M
b0001000 N
b0001000 P
b0001000 R
1S
b0001000 U
b0000111 V
b000111 W
b0001000 Y
1Z
1^
1o
bXXXXXXXXXXXXXX r
1s
bXXXXXXXXXXXXXX v
#160000000
0!
0.
0S
0Z
0^
0o
0s
#170000000
1!
b001000 +
1-
1.
b001000 1
13
b0001001 F
b0001000 G
b0001001 H
b0001001 I
b001000 J
b0001000 M
b0001001 N
b0001001 P
b0001001 R
1S
b0001001 U
b0001000 V
b001000 W
b0001001 Y
1Z
1^
1o
bXXXXXXXXXXXXXX r
1s
#180000000
0!
0.
0S
0Z
0^
0o
0s
#190000000
1!
b001001 +
1.
b001001 1
b0001010 F
b0001001 G
b0001010 H
b0001010 I
b001001 J
b0001001 M
b0001010 N
b0001010 P
b0001010 R
1S
b0001010 U
b0001001 V
b001001 W
b0001010 Y
1Z
1^
1o
bXXXXXXXXXXXXXX r
1s
#200000000
0!
0.
0S
0Z
0^
0o
0s
#210000000
1!
b001010 +
1.
b001010 1
b0001011 F
b0001010 G
b0001011 H
b0001011 I
b001010 J
b0001010 M
b0001011 N
b0001011 P
b0001011 R
1S
b0001011 U
b0001010 V
b001010 W
b0001011 Y
1Z
1^
1o
bXXXXXXXXXXXXXX r
1s
#220000000
0!
0.
0S
0Z
0^
0o
0s
#230000000
1!
b001011 +
1.
b001011 1
b0001100 F
b0001011 G
b0001100 H
b0001100 I
b001011 J
b0001011 M
b0001100 N
b0001100 P
b0001100 R
1S
b0001100 U
b0001011 V
b001011 W
b0001100 Y
1Z
1^
1o
bXXXXXXXXXXXXXX r
1s
#240000000
0!
0.
0S
0Z
0^
0o
0s
#250000000
1!
b001100 +
1.
b001100 1
b0001101 F
b0001100 G
b0001101 H
b0001101 I
b001100 J
b0001100 M
b0001101 N
b0001101 P
b0001101 R
1S
b0001101 U
b0001100 V
b001100 W
b0001101 Y
1Z
1^
1o
bXXXXXXXXXXXXXX r
1s
#260000000
0!
0.
0S
0Z
0^
0o
0s
#270000000
1!
b001101 +
1.
b001101 1
b0001110 F
b0001101 G
b0001110 H
b0001110 I
b001101 J
b0001101 M
b0001110 N
b0001110 P
b0001110 R
1S
b0001110 U
b0001101 V
b001101 W
b0001110 Y
1Z
1^
1o
bXXXXXXXXXXXXXX r
1s
#280000000
0!
0.
0S
0Z
0^
0o
0s
#290000000
1!
b001110 +
1.
b001110 1
b0001111 F
b0001110 G
b0001111 H
b0001111 I
b001110 J
b0001110 M
b0001111 N
b0001111 P
b0001111 R
1S
b0001111 U
b0001110 V
b001110 W
b0001111 Y
1Z
1^
1o
bXXXXXXXXXXXXXX r
1s
#300000000
0!
0.
0S
0Z
0^
0o
0s
#310000000
1!
b001111 +
1.
b001111 1
b0010000 F
b0001111 G
b0010000 H
b0010000 I
b001111 J
b0001111 M
b0010000 N
b0010000 P
b0010000 R
1S
b0010000 U
b0001111 V
b001111 W
b0010000 Y
1Z
1^
1o
bXXXXXXXXXXXXXX r
1s
#320000000
0!
0.
0S
0Z
0^
0o
0s
#330000000
1!
b010000 +
0-
1.
b010000 1
03
b0010001 F
b0010000 G
b0010001 H
b0010001 I
b010000 J
b0010000 M
b0010001 N
b0010001 P
b0010001 R
1S
b0010001 U
b0010000 V
b010000 W
b0010001 Y
1Z
1^
1o
bXXXXXXXXXXXXXX r
1s
#340000000
0!
0.
0S
0Z
0^
0o
0s
#350000000
1!
b010001 +
1.
b010001 1
b0010010 F
b0010001 G
b0010010 H
b0010010 I
b010001 J
b0010001 M
b0010010 N
b0010010 P
b0010010 R
1S
b0010010 U
b0010001 V
b010001 W
b0010010 Y
1Z
1^
1o
bXXXXXXXXXXXXXX r
1s
#360000000
0!
0.
0S
0Z
0^
0o
0s
#370000000
1!
b010010 +
1.
b010010 1
b0010011 F
b0010010 G
b0010011 H
b0010011 I
b010010 J
b0010010 M
b0010011 N
b0010011 P
b0010011 R
1S
b0010011 U
b0010010 V
b010010 W
b0010011 Y
1Z
1^
1o
bXXXXXXXXXXXXXX r
1s
#380000000
0!
0.
0S
0Z
0^
0o
0s
#390000000
1!
b010011 +
1.
b010011 1
b0010100 F
b0010011 G
b0010100 H
b0010100 I
b010011 J
b0010011 M
b0010100 N
b0010100 P
b0010100 R
1S
b0010100 U
b0010011 V
b010011 W
b0010100 Y
1Z
1^
1o
bXXXXXXXXXXXXXX r
1s
#400000000
0!
0.
0S
0Z
0^
0o
0s
#410000000
1!
b010100 +
1.
b010100 1
b0010101 F
b0010100 G
b0010101 H
b0010101 I
b010100 J
b0010100 M
b0010101 N
b0010101 P
b0010101 R
1S
b0010101 U
b0010100 V
b010100 W
b0010101 Y
1Z
1^
1o
bXXXXXXXXXXXXXX r
1s
#420000000
0!
0.
0S
0Z
0^
0o
0s
#430000000
1!
b010101 +
1.
b010101 1
b0010110 F
b0010101 G
b0010110 H
b0010110 I
b010101 J
b0010101 M
b0010110 N
b0010110 P
b0010110 R
1S
b0010110 U
b0010101 V
b010101 W
b0010110 Y
1Z
1^
1o
bXXXXXXXXXXXXXX r
1s
#440000000
0!
0.
0S
0Z
0^
0o
0s
#450000000
1!
b010110 +
1.
b010110 1
b0010111 F
b0010110 G
b0010111 H
b0010111 I
b010110 J
b0010110 M
b0010111 N
b0010111 P
b0010111 R
1S
b0010111 U
b0010110 V
b010110 W
b0010111 Y
1Z
1^
1o
bXXXXXXXXXXXXXX r
1s
#460000000
0!
0.
0S
0Z
0^
0o
0s
#470000000
1!
b010111 +
1.
b010111 1
b0011000 F
b0010111 G
b0011000 H
b0011000 I
b010111 J
b0010111 M
b0011000 N
b0011000 P
b0011000 R
1S
b0011000 U
b0010111 V
b010111 W
b0011000 Y
1Z
1^
1o
bXXXXXXXXXXXXXX r
1s
#480000000
0!
0.
0S
0Z
0^
0o
0s
#490000000
1!
b011000 +
1-
1.
b011000 1
13
b0011001 F
b0011000 G
b0011001 H
b0011001 I
b011000 J
b0011000 M
b0011001 N
b0011001 P
b0011001 R
1S
b0011001 U
b0011000 V
b011000 W
b0011001 Y
1Z
1^
1o
bXXXXXXXXXXXXXX r
1s
#500000000
0!
0.
0S
0Z
0^
0o
0s
#510000000
1!
b011001 +
1.
b011001 1
b0011010 F
b0011001 G
b0011010 H
b0011010 I
b011001 J
b0011001 M
b0011010 N
b0011010 P
b0011010 R
1S
b0011010 U
b0011001 V
b011001 W
b0011010 Y
1Z
1^
1o
bXXXXXXXXXXXXXX r
1s
#520000000
0!
0.
0S
0Z
0^
0o
0s
#530000000
1!
b011010 +
1.
b011010 1
b0011011 F
b0011010 G
b0011011 H
b0011011 I
b011010 J
b0011010 M
b0011011 N
b0011011 P
b0011011 R
1S
b0011011 U
b0011010 V
b011010 W
b0011011 Y
1Z
1^
1o
bXXXXXXXXXXXXXX r
1s
#540000000
0!
0.
0S
0Z
0^
0o
0s
#550000000
1!
b011011 +
1.
b011011 1
b0011100 F
b0011011 G
b0011100 H
b0011100 I
b011011 J
b0011011 M
b0011100 N
b0011100 P
b0011100 R
1S
b0011100 U
b0011011 V
b011011 W
b0011100 Y
1Z
1^
1o
bXXXXXXXXXXXXXX r
1s
#560000000
0!
0.
0S
0Z
0^
0o
0s
#570000000
1!
b011100 +
1.
b011100 1
b0011101 F
b0011100 G
b0011101 H
b0011101 I
b011100 J
b0011100 M
b0011101 N
b0011101 P
b0011101 R
1S
b0011101 U
b0011100 V
b011100 W
b0011101 Y
1Z
1^
1o
bXXXXXXXXXXXXXX r
1s
#580000000
0!
0.
0S
0Z
0^
0o
0s
#590000000
1!
b011101 +
1.
b011101 1
b0011110 F
b0011101 G
b0011110 H
b0011110 I
b011101 J
b0011101 M
b0011110 N
b0011110 P
b0011110 R
1S
b0011110 U
b0011101 V
b011101 W
b0011110 Y
1Z
1^
1o
bXXXXXXXXXXXXXX r
1s
#600000000
0!
0.
0S
0Z
0^
0o
0s
#610000000
1!
b011110 +
1.
b011110 1
b0011111 F
b0011110 G
b0011111 H
b0011111 I
b011110 J
b0011110 M
b0011111 N
b0011111 P
b0011111 R
1S
b0011111 U
b0011110 V
b011110 W
b0011111 Y
1Z
1^
1o
bXXXXXXXXXXXXXX r
1s
#620000000
0!
0.
0S
0Z
0^
0o
0s
#630000000
1!
b011111 +
1.
b011111 1
b0100000 F
b0011111 G
b0100000 H
b0100000 I
b011111 J
b0011111 M
b0100000 N
b0100000 P
b0100000 R
1S
b0100000 U
b0011111 V
b011111 W
b0100000 Y
1Z
1^
1o
bXXXXXXXXXXXXXX r
1s
#640000000
0!
0.
0S
0Z
0^
0o
0s
#650000000
1!
b100000 +
0-
1.
b100000 1
03
b0100001 F
b0100000 G
b0100001 H
b0100001 I
b100000 J
b0100000 M
b0100001 N
b0100001 P
b0100001 R
1S
b0100001 U
b0100000 V
b100000 W
b0100001 Y
1Z
1^
1o
bXXXXXXXXXXXXXX r
1s
#660000000
0!
0.
0S
0Z
0^
0o
0s
#670000000
1!
b100001 +
1.
b100001 1
b0100010 F
b0100001 G
b0100010 H
b0100010 I
b100001 J
b0100001 M
b0100010 N
b0100010 P
b0100010 R
1S
b0100010 U
b0100001 V
b100001 W
b0100010 Y
1Z
1^
1o
bXXXXXXXXXXXXXX r
1s
#680000000
0!
0.
0S
0Z
0^
0o
0s
#690000000
1!
b100010 +
1.
b100010 1
b0100011 F
b0100010 G
b0100011 H
b0100011 I
b100010 J
b0100010 M
b0100011 N
b0100011 P
b0100011 R
1S
b0100011 U
b0100010 V
b100010 W
b0100011 Y
1Z
1^
1o
bXXXXXXXXXXXXXX r
1s
#700000000
0!
0.
0S
0Z
0^
0o
0s
#710000000
1!
b100011 +
1.
b100011 1
b0100100 F
b0100011 G
b0100100 H
b0100100 I
b100011 J
b0100011 M
b0100100 N
b0100100 P
b0100100 R
1S
b0100100 U
b0100011 V
b100011 W
b0100100 Y
1Z
1^
1o
bXXXXXXXXXXXXXX r
1s
